﻿{
    "Professional_Work": [{
        "Description": "The broker site for Ethos Lending LLC, utilized by their costumers and partners to create and manage their loan pipeline.",
        "Image": "Ethos_Lending_Home.jpg",
        "Title": "Ethos Lending Wholesale Site",
        "Url": "https://broker.ethoslending.com/"
    }, {
        "Description": "Webpage for an Education Startup to connect layman who want to teach and students who wish to learn skills.",
        "Image": "Redulo.jpg",
        "Title": "Redulo, Education Startup",
        "Url": "https://redulo.com/"
    }, {
        "Description": "Law management startup, created to help connect lawyers with potential clients.",
        "Image": "Juristerra.jpg",
        "Title": "Juristerra",
        "Url": "https://juristerra.net"
    }, {
        "Description": "Medpius assists foreign residents of Japan by connecting them with bilingual medical specialists locally and in the United States for consultations and second opinions.",
        "Image": "Medpius.jpg",
        "Title": "Medpius",
        "Url": "https://medpius.com"
    }],
    "Hackathons": [{
            "Description": "As part of the Nasa Space Apps Challenge 2016, I and my 3 partners, won both the Crowd Favorite and first place for our project Solar Atlas, a first person 3D simulation of Mars using Unity3d and Nasa's Mars altimeter data.",
            "Image": "nasaSpace.jpg",
            "Title": "Nasa Space Apps Challenge 2016 - Solar Atlas",
            "Url": "/Demo/NasaSpace",
            "RepoUrl": "https://bitbucket.org/Kurtaclan/nasaspace/src/master/"
        },
        {
            "Description": "I created a mobile web application to assist users in finding a place between their various locations using both the Yelp and Google Places apis.",
            "Image": "Middlefy.PNG",
            "Title": "AT&T Mobile App Challenge - Meet Me In The Middle",
            "Url": "http://www.middlefy.com/",
            "RepoUrl": "https://bitbucket.org/Kurtaclan/meetmeinthemiddle/src/master/"
        },
        {
            "Description": "An IOS Augmented Reality Application utilizing DC assets to create a turn based strategy game projected into the real world.",
            "Image": "dcStreets.jpg",
            "Title": "AT&T Shape 2017 - DC Streets"
        }
    ],
    "Weekend_Projects": [{
            "Description": "An Android port of the Meet Me In The Middle Web App.",
            "Image": "androidMeetMeInTheMiddle.png",
            "Title": "Meet Me In The Middle: Android",
            "Url": "/Download/MeetMeInTheMiddle.apk",
            "RepoUrl": "https://bitbucket.org/Kurtaclan/meetmeinthemiddleandroid/src/master/"
        },
        {
            "Description": "Arcade classics remade in Unity 2d, currently Space Invaders, Pac-Man, Bust-A-Move and Q*Bert are playable, more are in the works",
            "Image": "Arcade.png",
            "Title": "Arcade Classics",
            "Url": "/Demo/Arcade",
            "RepoUrl": "https://bitbucket.org/Kurtaclan/acrade/src"
        },
        {
            "Description": "A point in click puzzle game made in unity.",
            "Image": "PointAndClick.jpg",
            "Title": "Point and Click Puzzle Game - In Progress",
            "Url": "/Download/PointAndClick.zip",
            "RepoUrl": "https://bitbucket.org/Kurtaclan/pointandclick/src"
        },
        {
            "Description": "A vr app set inside a Blacksmith's shop.",
            "Image": "Blacksmith.jpg",
            "Title": "Vr Blacksmith - In Progress",
            "Url": "/Download/BlacksmithVr.zip",
            "RepoUrl": "https://bitbucket.org/Kurtaclan/blacksmithvr/src"
        }
    ]
}